{
    "items": [
        {
            "name": "About",
            "url": "/about/"
        },
        {
            "name": "Guide",
            "url": "/guide/"
        },
        {
            "name": "News",
            "url": "/news/"
        }
    ]
}